<!-- Generated by IcoMoon.io -->
<svg version="1.1" xmlns="http://www.w3.org/2000/svg" width="1024" height="1024" viewBox="0 0 1024 1024">
<g id="icomoon-ignore">
</g>
<path fill="#000" d="M463.040 508.576l-453.248 453.248c-12.608 12.576-12.608 32.992 0 45.6 6.304 6.304 14.56 9.44 22.784 9.44s16.512-3.136 22.784-9.44l456.672-456.64 456.672 456.64c6.304 6.304 14.528 9.44 22.784 9.44s16.48-3.136 22.784-9.44c12.608-12.576 12.608-32.992 0-45.6l-453.216-453.248 453.536-453.568c12.608-12.576 12.608-32.992 0-45.6s-32.992-12.576-45.568 0l-456.928 456.96-456.992-456.96c-12.576-12.576-32.96-12.576-45.568 0s-12.608 32.992 0 45.6l453.568 453.568z"></path>
</svg>
