<!-- Generated by IcoMoon.io -->
<svg version="1.1" xmlns="http://www.w3.org/2000/svg" width="768" height="768" viewBox="0 0 768 768">
<title></title>
<g id="icomoon-ignore">
</g>
<path fill="#000" d="M607.5 96c34.5 0 64.5 30 64.5 64.5v447c0 34.5-30 64.5-64.5 64.5h-447c-34.5 0-64.5-30-64.5-64.5v-447c0-34.5 30-64.5 64.5-64.5h447zM607.5 160.5h-447v447h447v-447z"></path>
</svg>
